Design Route Status
                                               :      # nets :
   ------------------------------------------- : ----------- :
   # of logical nets.......................... :        9239 :
       # of nets not needing routing.......... :        6876 :
           # of internally routed nets........ :         863 :
           # of nets with no loads............ :        6013 :
       # of routable nets..................... :        2363 :
           # of fully routed nets............. :        2363 :
       # of nets with routing errors.......... :           0 :
   ------------------------------------------- : ----------- :

