Copyright 1986-2015 Xilinx, Inc. All Rights Reserved.
---------------------------------------------------------------------------------------------------------------------------
| Tool Version     : Vivado v.2015.4 (lin64) Build 1412921 Wed Nov 18 09:44:32 MST 2015
| Date             : Wed May  4 15:47:47 2016
| Host             : orlando running 64-bit Ubuntu 14.04.4 LTS
| Command          : report_power -file system_wrapper_power_routed.rpt -pb system_wrapper_power_summary_routed.pb
| Design           : system_wrapper
| Device           : xc7z010clg400-1
| Design State     : routed
| Grade            : commercial
| Process          : typical
| Characterization : Production
---------------------------------------------------------------------------------------------------------------------------

Power Report

Table of Contents
-----------------
1. Summary
1.1 On-Chip Components
1.2 Power Supply Summary
1.3 Confidence Level
2. Settings
2.1 Environment
2.2 Clock Constraints
3. Detailed Reports
3.1 By Hierarchy

1. Summary
----------

+--------------------------+-------+
| Total On-Chip Power (W)  | 1.714 |
| Dynamic (W)              | 1.581 |
| Device Static (W)        | 0.132 |
| Effective TJA (C/W)      | 11.5  |
| Max Ambient (C)          | 65.2  |
| Junction Temperature (C) | 44.8  |
| Confidence Level         | Low   |
| Setting File             | ---   |
| Simulation Activity File | ---   |
| Design Nets Matched      | NA    |
+--------------------------+-------+


1.1 On-Chip Components
----------------------

+--------------------------+-----------+----------+-----------+-----------------+
| On-Chip                  | Power (W) | Used     | Available | Utilization (%) |
+--------------------------+-----------+----------+-----------+-----------------+
| Clocks                   |     0.007 |        5 |       --- |             --- |
| Slice Logic              |     0.002 |     3049 |       --- |             --- |
|   LUT as Logic           |     0.002 |      933 |     17600 |            5.30 |
|   Register               |    <0.001 |     1389 |     35200 |            3.95 |
|   LUT as Distributed RAM |    <0.001 |       49 |      6000 |            0.82 |
|   CARRY4                 |    <0.001 |       20 |      4400 |            0.45 |
|   LUT as Shift Register  |    <0.001 |       68 |      6000 |            1.13 |
|   Others                 |     0.000 |      320 |       --- |             --- |
| Signals                  |     0.003 |     2225 |       --- |             --- |
| I/O                      |     0.006 |       21 |       100 |           21.00 |
| PS7                      |     1.563 |        1 |       --- |             --- |
| Static Power             |     0.132 |          |           |                 |
| Total                    |     1.714 |          |           |                 |
+--------------------------+-----------+----------+-----------+-----------------+


1.2 Power Supply Summary
------------------------

+-----------+-------------+-----------+-------------+------------+
| Source    | Voltage (V) | Total (A) | Dynamic (A) | Static (A) |
+-----------+-------------+-----------+-------------+------------+
| Vccint    |       1.000 |     0.020 |       0.013 |      0.007 |
| Vccaux    |       1.800 |     0.012 |       0.000 |      0.012 |
| Vcco33    |       3.300 |     0.003 |       0.002 |      0.001 |
| Vcco25    |       2.500 |     0.000 |       0.000 |      0.000 |
| Vcco18    |       1.800 |     0.001 |       0.000 |      0.001 |
| Vcco15    |       1.500 |     0.001 |       0.000 |      0.001 |
| Vcco135   |       1.350 |     0.000 |       0.000 |      0.000 |
| Vcco12    |       1.200 |     0.000 |       0.000 |      0.000 |
| Vccaux_io |       1.800 |     0.000 |       0.000 |      0.000 |
| Vccbram   |       1.000 |     0.000 |       0.000 |      0.000 |
| MGTAVcc   |       1.000 |     0.000 |       0.000 |      0.000 |
| MGTAVtt   |       1.200 |     0.000 |       0.000 |      0.000 |
| MGTVccaux |       1.800 |     0.000 |       0.000 |      0.000 |
| Vccpint   |       1.000 |     0.740 |       0.709 |      0.030 |
| Vccpaux   |       1.800 |     0.085 |       0.074 |      0.010 |
| Vccpll    |       1.800 |     0.017 |       0.014 |      0.003 |
| Vcco_ddr  |       1.500 |     0.458 |       0.456 |      0.002 |
| Vcco_mio0 |       1.800 |     0.004 |       0.003 |      0.001 |
| Vcco_mio1 |       1.800 |     0.004 |       0.003 |      0.001 |
| Vccadc    |       1.800 |     0.020 |       0.000 |      0.020 |
+-----------+-------------+-----------+-------------+------------+


1.3 Confidence Level
--------------------

+-----------------------------+------------+--------------------------------------------------------+------------------------------------------------------------------------------------------------------------+
| User Input Data             | Confidence | Details                                                | Action                                                                                                     |
+-----------------------------+------------+--------------------------------------------------------+------------------------------------------------------------------------------------------------------------+
| Design implementation state | High       | Design is routed                                       |                                                                                                            |
| Clock nodes activity        | High       | User specified more than 95% of clocks                 |                                                                                                            |
| I/O nodes activity          | Low        | More than 75% of inputs are missing user specification | Provide missing input activity with simulation results or by editing the "By Resource Type -> I/Os" view   |
| Internal nodes activity     | Medium     | User specified less than 25% of internal nodes         | Provide missing internal nodes activity with simulation results or by editing the "By Resource Type" views |
| Device models               | High       | Device models are Production                           |                                                                                                            |
|                             |            |                                                        |                                                                                                            |
| Overall confidence level    | Low        |                                                        |                                                                                                            |
+-----------------------------+------------+--------------------------------------------------------+------------------------------------------------------------------------------------------------------------+


2. Settings
-----------

2.1 Environment
---------------

+-----------------------+------------------------+
| Ambient Temp (C)      | 25.0                   |
| ThetaJA (C/W)         | 11.5                   |
| Airflow (LFM)         | 250                    |
| Heat Sink             | none                   |
| ThetaSA (C/W)         | 0.0                    |
| Board Selection       | medium (10"x10")       |
| # of Board Layers     | 8to11 (8 to 11 Layers) |
| Board Temperature (C) | 25.0                   |
+-----------------------+------------------------+


2.2 Clock Constraints
---------------------

+------------+-----------------------------------------------------------+-----------------+
| Clock      | Domain                                                    | Constraint (ns) |
+------------+-----------------------------------------------------------+-----------------+
| clk_fpga_0 | system_i/processing_system7_0/inst/FCLK_CLK_unbuffered[0] |            10.0 |
| clk_fpga_1 | system_i/processing_system7_0/inst/FCLK_CLK_unbuffered[1] |             6.7 |
| clk_fpga_2 | system_i/processing_system7_0/inst/FCLK_CLK_unbuffered[2] |            81.5 |
+------------+-----------------------------------------------------------+-----------------+


3. Detailed Reports
-------------------

3.1 By Hierarchy
----------------

+----------------------------------------------+-----------+
| Name                                         | Power (W) |
+----------------------------------------------+-----------+
| system_wrapper                               |     1.581 |
|   iic_0_scl_iobuf                            |     0.001 |
|   iic_0_sda_iobuf                            |     0.001 |
|   system_i                                   |     1.575 |
|     BTNs_4Bits                               |    <0.001 |
|       U0                                     |    <0.001 |
|         AXI_LITE_IPIF_I                      |    <0.001 |
|           I_SLAVE_ATTACHMENT                 |    <0.001 |
|             I_DECODER                        |    <0.001 |
|         gpio_core_1                          |    <0.001 |
|           Not_Dual.INPUT_DOUBLE_REGS3        |    <0.001 |
|     LEDs_4Bits                               |    <0.001 |
|       U0                                     |    <0.001 |
|         AXI_LITE_IPIF_I                      |    <0.001 |
|           I_SLAVE_ATTACHMENT                 |    <0.001 |
|             I_DECODER                        |    <0.001 |
|         gpio_core_1                          |    <0.001 |
|     SWs_4Bits                                |    <0.001 |
|       U0                                     |    <0.001 |
|         AXI_LITE_IPIF_I                      |    <0.001 |
|           I_SLAVE_ATTACHMENT                 |    <0.001 |
|             I_DECODER                        |    <0.001 |
|         gpio_core_1                          |    <0.001 |
|           Not_Dual.INPUT_DOUBLE_REGS3        |    <0.001 |
|     axi_i2s_adi_1                            |     0.002 |
|       U0                                     |     0.002 |
|         ctrl                                 |     0.001 |
|           clkgen                             |    <0.001 |
|           rx_gen.rx                          |    <0.001 |
|           rx_gen.rx_sync                     |    <0.001 |
|             fifo_reg_0_3_0_4                 |    <0.001 |
|           tx_gen.tx                          |    <0.001 |
|           tx_sync                            |    <0.001 |
|             fifo_reg_0_3_0_4                 |    <0.001 |
|         ctrlif                               |    <0.001 |
|         pl330_dma_rx_gen.rx_fifo             |    <0.001 |
|           fifo                               |    <0.001 |
|             data_fifo_reg_0_7_0_5            |    <0.001 |
|             data_fifo_reg_0_7_12_17          |    <0.001 |
|             data_fifo_reg_0_7_18_23          |    <0.001 |
|             data_fifo_reg_0_7_6_11           |    <0.001 |
|         pl330_dma_tx_gen.tx_fifo             |    <0.001 |
|           fifo                               |    <0.001 |
|             data_fifo_reg_0_7_0_5            |    <0.001 |
|             data_fifo_reg_0_7_12_17          |    <0.001 |
|             data_fifo_reg_0_7_18_23          |    <0.001 |
|             data_fifo_reg_0_7_6_11           |    <0.001 |
|     axi_mem_intercon                         |     0.000 |
|     axi_protocol_converter_0                 |     0.004 |
|       inst                                   |     0.004 |
|         gen_axilite.gen_b2s_conv.axilite_b2s |     0.004 |
|           RD.ar_channel_0                    |    <0.001 |
|             ar_cmd_fsm_0                     |    <0.001 |
|             cmd_translator_0                 |    <0.001 |
|               incr_cmd_0                     |    <0.001 |
|               wrap_cmd_0                     |    <0.001 |
|           RD.r_channel_0                     |    <0.001 |
|             rd_data_fifo_0                   |    <0.001 |
|             transaction_fifo_0               |    <0.001 |
|           SI_REG                             |     0.002 |
|             ar_pipe                          |    <0.001 |
|             aw_pipe                          |    <0.001 |
|             b_pipe                           |    <0.001 |
|             r_pipe                           |    <0.001 |
|           WR.aw_channel_0                    |    <0.001 |
|             aw_cmd_fsm_0                     |    <0.001 |
|             cmd_translator_0                 |    <0.001 |
|               incr_cmd_0                     |    <0.001 |
|               wrap_cmd_0                     |    <0.001 |
|           WR.b_channel_0                     |    <0.001 |
|             bid_fifo_0                       |    <0.001 |
|             bresp_fifo_0                     |    <0.001 |
|     ground                                   |     0.000 |
|     mutex_0                                  |    <0.001 |
|       U0                                     |    <0.001 |
|         SingleAccess                         |    <0.001 |
|           No_HW_Protection.Normal_Mutex_Inst |    <0.001 |
|             Mutex_Store                      |    <0.001 |
|               Use_Multi_Ch_Reg.RAM_Storage   |    <0.001 |
|                 RAM_reg_0_15_0_0             |    <0.001 |
|                 RAM_reg_0_15_1_1             |    <0.001 |
|                 RAM_reg_0_15_2_2             |    <0.001 |
|                 RAM_reg_0_15_3_3             |    <0.001 |
|                 RAM_reg_0_15_4_4             |    <0.001 |
|                 RAM_reg_0_15_5_5             |    <0.001 |
|                 RAM_reg_0_15_6_6             |    <0.001 |
|                 RAM_reg_0_15_7_7             |    <0.001 |
|                 RAM_reg_0_15_8_8             |    <0.001 |
|         Using_AXI_0.AXI_If_0                 |    <0.001 |
|     processing_system7_0                     |     1.564 |
|       inst                                   |     1.564 |
|         xlnx_axi_wrshim_unwrap_inst_gp0      |     0.000 |
|         xlnx_axi_wrshim_unwrap_inst_gp1      |     0.000 |
|     processing_system7_0_axi_periph          |     0.003 |
|       m00_couplers                           |    <0.001 |
|         m00_regslice                         |    <0.001 |
|           inst                               |    <0.001 |
|             ar_pipe                          |    <0.001 |
|             aw_pipe                          |    <0.001 |
|             b_pipe                           |    <0.001 |
|             r_pipe                           |    <0.001 |
|             w_pipe                           |    <0.001 |
|       m01_couplers                           |    <0.001 |
|         m01_regslice                         |    <0.001 |
|           inst                               |    <0.001 |
|             ar_pipe                          |    <0.001 |
|             aw_pipe                          |    <0.001 |
|             b_pipe                           |    <0.001 |
|             r_pipe                           |    <0.001 |
|             w_pipe                           |    <0.001 |
|       m02_couplers                           |    <0.001 |
|         m02_regslice                         |    <0.001 |
|           inst                               |    <0.001 |
|             ar_pipe                          |    <0.001 |
|             aw_pipe                          |    <0.001 |
|             b_pipe                           |    <0.001 |
|             r_pipe                           |    <0.001 |
|             w_pipe                           |    <0.001 |
|       m03_couplers                           |    <0.001 |
|         m03_regslice                         |    <0.001 |
|           inst                               |    <0.001 |
|             ar_pipe                          |    <0.001 |
|             aw_pipe                          |    <0.001 |
|             b_pipe                           |    <0.001 |
|             r_pipe                           |    <0.001 |
|             w_pipe                           |    <0.001 |
|       m04_couplers                           |    <0.001 |
|         m04_regslice                         |    <0.001 |
|           inst                               |    <0.001 |
|             ar_pipe                          |    <0.001 |
|             aw_pipe                          |    <0.001 |
|             b_pipe                           |    <0.001 |
|             r_pipe                           |    <0.001 |
|             w_pipe                           |    <0.001 |
|       m05_couplers                           |    <0.001 |
|         m05_regslice                         |    <0.001 |
|           inst                               |    <0.001 |
|             ar_pipe                          |    <0.001 |
|             aw_pipe                          |    <0.001 |
|             b_pipe                           |    <0.001 |
|             r_pipe                           |    <0.001 |
|             w_pipe                           |    <0.001 |
|       m06_couplers                           |    <0.001 |
|         m06_regslice                         |    <0.001 |
|           inst                               |    <0.001 |
|             ar_pipe                          |    <0.001 |
|             aw_pipe                          |    <0.001 |
|             b_pipe                           |    <0.001 |
|             r_pipe                           |    <0.001 |
|             w_pipe                           |    <0.001 |
|       m07_couplers                           |    <0.001 |
|         m07_regslice                         |    <0.001 |
|           inst                               |    <0.001 |
|             ar_pipe                          |    <0.001 |
|             aw_pipe                          |    <0.001 |
|             b_pipe                           |    <0.001 |
|             r_pipe                           |    <0.001 |
|             w_pipe                           |    <0.001 |
|       xbar                                   |    <0.001 |
|         inst                                 |    <0.001 |
|           gen_sasd.crossbar_sasd_0           |    <0.001 |
|             addr_arbiter_inst                |    <0.001 |
|             gen_decerr.decerr_slave_inst     |    <0.001 |
|             splitter_ar                      |    <0.001 |
|             splitter_aw                      |    <0.001 |
+----------------------------------------------+-----------+


