Design Route Status
                                               :      # nets :
   ------------------------------------------- : ----------- :
   # of logical nets.......................... :        9804 :
       # of nets not needing routing.......... :        4638 :
           # of internally routed nets........ :        4579 :
           # of nets with no loads............ :          59 :
       # of routable nets..................... :        5166 :
           # of fully routed nets............. :        5166 :
       # of nets with routing errors.......... :           0 :
   ------------------------------------------- : ----------- :

