<?xml version="1.0" encoding="UTF-8"?>
<session version="1.0">
<refactoring comment="Delete resource &apos;lab_07_bsp/ps7_cortexa9_0/include/lwip/timeouts.h&apos;" deleteContents="false" description="Delete resource &apos;lab_07_bsp/ps7_cortexa9_0/include/lwip/timeouts.h&apos;" element1="/lab_07_bsp/ps7_cortexa9_0/include/lwip/timeouts.h" flags="7" id="org.eclipse.ltk.core.refactoring.delete.resources" resources="1" stamp="1495183381910"/>
</session>